%YAML 1.1
%TAG !u! tag:unity3d.com,2011:
--- !u!1 &813290990362105783
GameObject:
  m_ObjectHideFlags: 0
  m_CorrespondingSourceObject: {fileID: 0}
  m_PrefabInstance: {fileID: 0}
  m_PrefabAsset: {fileID: 0}
  serializedVersion: 6
  m_Component:
  - component: {fileID: 813290990361676695}
  - component: {fileID: 813290990365100983}
  - component: {fileID: 813290990364100983}
  m_Layer: 0
  m_Name: Cooler_reception
  m_TagString: Untagged
  m_Icon: {fileID: 0}
  m_NavMeshLayer: 0
  m_StaticEditorFlags: 4294967295
  m_IsActive: 1
--- !u!4 &813290990361676695
Transform:
  m_ObjectHideFlags: 0
  m_CorrespondingSourceObject: {fileID: 0}
  m_PrefabInstance: {fileID: 0}
  m_PrefabAsset: {fileID: 0}
  m_GameObject: {fileID: 813290990362105783}
  m_LocalRotation: {x: 0, y: 0, z: 0, w: 1}
  m_LocalPosition: {x: 0, y: 0, z: 0}
  m_LocalScale: {x: 1, y: 1, z: 1}
  m_Children:
  - {fileID: 4604255729110431888}
  m_Father: {fileID: 0}
  m_RootOrder: 0
  m_LocalEulerAnglesHint: {x: 0, y: 0, z: 0}
--- !u!33 &813290990365100983
MeshFilter:
  m_ObjectHideFlags: 0
  m_CorrespondingSourceObject: {fileID: 0}
  m_PrefabInstance: {fileID: 0}
  m_PrefabAsset: {fileID: 0}
  m_GameObject: {fileID: 813290990362105783}
  m_Mesh: {fileID: 4300000, guid: dd5562645bd69f648a660aea3846bc43, type: 3}
--- !u!23 &813290990364100983
MeshRenderer:
  m_ObjectHideFlags: 0
  m_CorrespondingSourceObject: {fileID: 0}
  m_PrefabInstance: {fileID: 0}
  m_PrefabAsset: {fileID: 0}
  m_GameObject: {fileID: 813290990362105783}
  m_Enabled: 1
  m_CastShadows: 1
  m_ReceiveShadows: 1
  m_DynamicOccludee: 1
  m_MotionVectors: 1
  m_LightProbeUsage: 1
  m_ReflectionProbeUsage: 1
  m_RayTracingMode: 2
  m_RenderingLayerMask: 1
  m_RendererPriority: 0
  m_Materials:
  - {fileID: 2100000, guid: aa3e25ea4ff33ca40b65c1a9d5b41c43, type: 2}
  m_StaticBatchInfo:
    firstSubMesh: 0
    subMeshCount: 0
  m_StaticBatchRoot: {fileID: 0}
  m_ProbeAnchor: {fileID: 0}
  m_LightProbeVolumeOverride: {fileID: 0}
  m_ScaleInLightmap: 1
  m_ReceiveGI: 1
  m_PreserveUVs: 0
  m_IgnoreNormalsForChartDetection: 0
  m_ImportantGI: 0
  m_StitchLightmapSeams: 0
  m_SelectedEditorRenderState: 3
  m_MinimumChartSize: 4
  m_AutoUVMaxDistance: 0.5
  m_AutoUVMaxAngle: 89
  m_LightmapParameters: {fileID: 0}
  m_SortingLayerID: 0
  m_SortingLayer: 0
  m_SortingOrder: 0
--- !u!1001 &4608518308799129278
PrefabInstance:
  m_ObjectHideFlags: 0
  serializedVersion: 2
  m_Modification:
    m_TransformParent: {fileID: 813290990361676695}
    m_Modifications:
    - target: {fileID: 1237322413489532, guid: 9249b746de34cc84ea12b6d61f24de31, type: 3}
      propertyPath: m_Name
      value: cooler
      objectReference: {fileID: 0}
    - target: {fileID: 4825536760389166, guid: 9249b746de34cc84ea12b6d61f24de31, type: 3}
      propertyPath: m_LocalPosition.x
      value: 0
      objectReference: {fileID: 0}
    - target: {fileID: 4825536760389166, guid: 9249b746de34cc84ea12b6d61f24de31, type: 3}
      propertyPath: m_LocalPosition.y
      value: 0.66540414
      objectReference: {fileID: 0}
    - target: {fileID: 4825536760389166, guid: 9249b746de34cc84ea12b6d61f24de31, type: 3}
      propertyPath: m_LocalPosition.z
      value: 0.04509926
      objectReference: {fileID: 0}
    - target: {fileID: 4825536760389166, guid: 9249b746de34cc84ea12b6d61f24de31, type: 3}
      propertyPath: m_LocalRotation.x
      value: -0
      objectReference: {fileID: 0}
    - target: {fileID: 4825536760389166, guid: 9249b746de34cc84ea12b6d61f24de31, type: 3}
      propertyPath: m_LocalRotation.y
      value: 0
      objectReference: {fileID: 0}
    - target: {fileID: 4825536760389166, guid: 9249b746de34cc84ea12b6d61f24de31, type: 3}
      propertyPath: m_LocalRotation.z
      value: -0
      objectReference: {fileID: 0}
    - target: {fileID: 4825536760389166, guid: 9249b746de34cc84ea12b6d61f24de31, type: 3}
      propertyPath: m_LocalRotation.w
      value: 1
      objectReference: {fileID: 0}
    - target: {fileID: 4825536760389166, guid: 9249b746de34cc84ea12b6d61f24de31, type: 3}
      propertyPath: m_RootOrder
      value: 0
      objectReference: {fileID: 0}
    - target: {fileID: 4825536760389166, guid: 9249b746de34cc84ea12b6d61f24de31, type: 3}
      propertyPath: m_LocalEulerAnglesHint.y
      value: 0
      objectReference: {fileID: 0}
    - target: {fileID: 4825536760389166, guid: 9249b746de34cc84ea12b6d61f24de31, type: 3}
      propertyPath: m_LocalScale.x
      value: 1
      objectReference: {fileID: 0}
    - target: {fileID: 4825536760389166, guid: 9249b746de34cc84ea12b6d61f24de31, type: 3}
      propertyPath: m_LocalScale.z
      value: 1
      objectReference: {fileID: 0}
    m_RemovedComponents: []
  m_SourcePrefab: {fileID: 100100000, guid: 9249b746de34cc84ea12b6d61f24de31, type: 3}
--- !u!4 &4604255729110431888 stripped
Transform:
  m_CorrespondingSourceObject: {fileID: 4825536760389166, guid: 9249b746de34cc84ea12b6d61f24de31,
    type: 3}
  m_PrefabInstance: {fileID: 4608518308799129278}
  m_PrefabAsset: {fileID: 0}
